{
	"commentStamp" : "Anonymous 12/10/2017 15:37",
	"super" : "WAExampleComponent",
	"category" : "BookCollectorUI",
	"classinstvars" : [ ],
	"pools" : [ ],
	"classvars" : [ ],
	"instvars" : [
		"addPublisherErrorContainer",
		"removePublisherErrorContainer"
	],
	"name" : "PublishersUI",
	"type" : "normal"
}