{
	"commentStamp" : "Anonymous 12/10/2017 16:05",
	"super" : "Object",
	"category" : "BookCollector",
	"classinstvars" : [ ],
	"pools" : [ ],
	"classvars" : [ ],
	"instvars" : [
		"name"
	],
	"name" : "Publisher",
	"type" : "normal"
}