{
	"commentStamp" : "<historical>",
	"super" : "PackageManifest",
	"category" : "BookCollector",
	"classinstvars" : [ ],
	"pools" : [ ],
	"classvars" : [ ],
	"instvars" : [ ],
	"name" : "ManifestBookCollector",
	"type" : "normal"
}